{
  "type": "script",
  "seleniumVersion": "2",
  "formatVersion": 2,
  "steps": [
    {
      "type": "get",
      "url": "http://ip.aucfan.com/search/list?c=&q=iphone&nq=&pb=&pe=&s=x&t=l30d&o=&itemstatus=&sellertype=&location=0&seller=&p=1"
    },
    {
      "type": "setElementSelected",
      "locator": {
        "type": "xpath",
        "value": "//div[@class='refinement_box']/table/tbody/tr/td[2]/select//option[1]"
      }
    },
    {
      "type": "waitForCurrentUrl",
      "url": "http://ip.aucfan.com/search/list?c=&q=iphone&nq=&pb=&pe=&s=x&t=l30d&o=t1&itemstatus=&sellertype=&location=0&seller=&p=1"
    }
  ],
  "data": {
    "configs": {},
    "source": "none"
  },
  "inputs": [],
  "timeoutSeconds": 60
}